[gd_resource type="StyleBoxFlat" format=2]

[resource]
content_margin_top = 16.0
content_margin_bottom = 16.0
bg_color = Color( 0, 0, 0, 1 )
border_width_left = 4
border_width_top = 4
border_width_right = 4
border_width_bottom = 4
