[gd_scene load_steps=16 format=2]

[ext_resource path="res://old/gameplay/common/MovementProfile.gd" type="Script" id=1]
[ext_resource path="res://old/campaign/alpha/biomes/Swamp.tres" type="Resource" id=2]
[ext_resource path="res://old/battle/Battle.tscn" type="PackedScene" id=6]
[ext_resource path="res://old/gameplay/entity/creature/zombie/Zombie.tscn" type="PackedScene" id=7]

[sub_resource type="Resource" id=1]
resource_local_to_scene = true
resource_name = "MovementProfile"
script = ExtResource( 1 )
mask = 17
operation = 0

[sub_resource type="Resource" id=2]
resource_local_to_scene = true
resource_name = "MovementProfile"
script = ExtResource( 1 )
mask = 17
operation = 0

[sub_resource type="Resource" id=3]
resource_local_to_scene = true
resource_name = "MovementProfile"
script = ExtResource( 1 )
mask = 17
operation = 0

[sub_resource type="Resource" id=4]
resource_local_to_scene = true
resource_name = "MovementProfile"
script = ExtResource( 1 )
mask = 17
operation = 0

[sub_resource type="Resource" id=5]
resource_local_to_scene = true
resource_name = "MovementProfile"
script = ExtResource( 1 )
mask = 17
operation = 0

[sub_resource type="Resource" id=6]
resource_local_to_scene = true
resource_name = "MovementProfile"
script = ExtResource( 1 )
mask = 17
operation = 0

[sub_resource type="Resource" id=7]
resource_local_to_scene = true
resource_name = "MovementProfile"
script = ExtResource( 1 )
mask = 17
operation = 0

[sub_resource type="Resource" id=8]
resource_local_to_scene = true
resource_name = "MovementProfile"
script = ExtResource( 1 )
mask = 17
operation = 0

[sub_resource type="Resource" id=9]
resource_local_to_scene = true
resource_name = "MovementProfile"
script = ExtResource( 1 )
mask = 17
operation = 0

[sub_resource type="Resource" id=10]
resource_local_to_scene = true
resource_name = "MovementProfile"
script = ExtResource( 1 )
mask = 17
operation = 0

[sub_resource type="Resource" id=11]
resource_local_to_scene = true
resource_name = "MovementProfile"
script = ExtResource( 1 )
mask = 17
operation = 0

[node name="Battle" instance=ExtResource( 6 )]

[node name="Map" parent="." index="2"]
tile_data = PoolIntArray( 0, -1610612736, 0, 1, -1610612736, 0, 2, -1610612736, 0, 3, -1610612736, 0, 4, -1610612736, 0, 5, 1610612749, 0, 6, 2, 0, 7, 2, 0, 8, 2, 0, 9, 13, 0, 10, -1610612736, 0, 11, -1610612736, 0, 12, -1610612736, 0, 13, -1610612736, 0, 14, -1610612736, 0, 15, -1610612736, 0, 16, -1610612736, 0, 17, -1610612736, 0, 18, -1610612736, 0, 19, -1610612736, 0, 20, -1610612736, 0, 65536, -1610612736, 0, 65537, -1073741824, 0, 65538, -1073741809, 0, 65539, -1073741811, 0, 65540, -1073741811, 0, 65541, 1610612750, 0, 65542, -1610612734, 0, 65543, -1610612734, 0, 65544, -1610612734, 0, 65545, -1073741810, 0, 65546, -1073741811, 0, 65547, -1073741811, 0, 65548, -1073741811, 0, 65549, -1073741811, 0, 65550, -1073741811, 0, 65551, -1073741811, 0, 65552, -1073741811, 0, 65553, 15, 0, 65554, -1610612736, 0, 65555, -1610612736, 0, 65556, -1610612736, 0, 131072, -1610612736, 0, 131073, -1073741809, 0, 131074, 1610612750, 0, 131075, -1610612734, 0, 131076, -1610612734, 0, 131077, -1610612734, 0, 131078, -1610612734, 0, 131079, -1610612734, 0, 131080, -1610612734, 0, 131081, -1610612734, 0, 131082, -1610612734, 0, 131083, -1610612734, 0, 131084, -1610612734, 0, 131085, -1610612734, 0, 131086, -1610612734, 0, 131087, 6, 0, 131088, -1610612732, 0, 131089, -1073741810, 0, 131090, 15, 0, 131091, -1610612736, 0, 131092, -1610612736, 0, 196608, -1610612736, 0, 196609, 1610612749, 0, 196610, -1610612734, 0, 196611, -1610612734, 0, 196612, -1610612734, 0, 196613, -1610612734, 0, 196614, -1610612734, 0, 196615, -1610612734, 0, 196616, -1610612734, 0, 196617, -1610612734, 0, 196618, -1610612734, 0, 196619, -1610612734, 0, 196620, -1610612734, 0, 196621, -1610612734, 0, 196622, -1610612734, 0, 196623, -1073741817, 0, 196624, -1610612732, 0, 196625, -1610612732, 0, 196626, -1073741810, 0, 196627, 15, 0, 196628, -1610612736, 0, 262144, -1610612736, 0, 262145, 1610612749, 0, 262146, -1610612734, 0, 262147, -1610612734, 0, 262148, 7, 0, 262149, -1610612729, 0, 262150, -1610612734, 0, 262151, -1610612734, 0, 262152, -1610612734, 0, 262153, -1610612734, 0, 262154, -1610612734, 0, 262155, -1610612734, 0, 262156, -1610612734, 0, 262157, -1610612734, 0, 262158, -1610612734, 0, 262159, -1610612734, 0, 262160, 6, 0, 262161, -1610612732, 0, 262162, -1610612732, 0, 262163, 13, 0, 262164, -1610612736, 0, 327680, -1610612736, 0, 327681, 1610612749, 0, 327682, -1610612734, 0, 327683, -1610612734, 0, 327684, 6, 0, 327685, -1610612732, 0, 327686, -1610612729, 0, 327687, -1610612734, 0, 327688, -1610612734, 0, 327689, -1610612734, 0, 327690, -1610612734, 0, 327691, 7, 0, 327692, -1610612729, 0, 327693, -1610612734, 0, 327694, -1610612734, 0, 327695, -1610612734, 0, 327696, -1073741817, 0, 327697, -1073741818, 0, 327698, -1073741818, 0, 327699, 13, 0, 327700, -1610612736, 0, 393216, -1610612736, 0, 393217, 1610612749, 0, 393218, -1610612734, 0, 393219, -1610612734, 0, 393220, -1073741817, 0, 393221, -1073741818, 0, 393222, -1073741818, 0, 393223, -1610612730, 0, 393224, -1610612729, 0, 393225, -1610612734, 0, 393226, 7, 0, 393227, -1610612732, 0, 393228, -1610612732, 0, 393229, -1610612734, 0, 393230, -1610612734, 0, 393231, -1610612734, 0, 393232, -1610612734, 0, 393233, -1610612734, 0, 393234, -1610612734, 0, 393235, 13, 0, 393236, -1610612736, 0, 458752, -1610612736, 0, 458753, 1610612749, 0, 458754, -1610612734, 0, 458755, -1610612734, 0, 458756, -1610612734, 0, 458757, -1610612734, 0, 458758, -1610612734, 0, 458759, -1073741817, 0, 458760, -1073741818, 0, 458761, -1610612730, 0, 458762, -1610612732, 0, 458763, -1073741818, 0, 458764, 1610612743, 0, 458765, -1610612734, 0, 458766, -1610612734, 0, 458767, -1610612734, 0, 458768, -1610612734, 0, 458769, -1610612734, 0, 458770, -1610612734, 0, 458771, 13, 0, 458772, -1610612736, 0, 524288, -1610612736, 0, 524289, 1610612749, 0, 524290, -1610612734, 0, 524291, -1610612734, 0, 524292, -1610612734, 0, 524293, -1610612734, 0, 524294, -1610612734, 0, 524295, -1610612734, 0, 524296, -1610612734, 0, 524297, 6, 0, 524298, 1610612742, 0, 524299, -1610612734, 0, 524300, -1610612734, 0, 524301, -1610612734, 0, 524302, -1610612734, 0, 524303, -1610612734, 0, 524304, -1610612734, 0, 524305, -1610612734, 0, 524306, -1610612734, 0, 524307, 13, 0, 524308, -1610612736, 0, 589824, -1610612736, 0, 589825, 1610612749, 0, 589826, -1610612730, 0, 589827, -1610612730, 0, 589828, -1610612730, 0, 589829, -1610612729, 0, 589830, -1610612734, 0, 589831, -1610612734, 0, 589832, -1610612734, 0, 589833, 6, 0, 589834, -1610612732, 0, 589835, -1610612729, 0, 589836, -1610612734, 0, 589837, -1610612734, 0, 589838, -1610612734, 0, 589839, -1610612734, 0, 589840, -1610612734, 0, 589841, -1610612734, 0, 589842, -1610612734, 0, 589843, 13, 0, 589844, -1610612736, 0, 655360, -1610612736, 0, 655361, 1610612749, 0, 655362, -1610612732, 0, 655363, -1610612732, 0, 655364, -1610612732, 0, 655365, -1610612732, 0, 655366, -1610612729, 0, 655367, -1610612734, 0, 655368, -1610612734, 0, 655369, 6, 0, 655370, -1610612732, 0, 655371, 1610612742, 0, 655372, -1610612734, 0, 655373, -1610612734, 0, 655374, -1610612734, 0, 655375, -1610612734, 0, 655376, -1610612734, 0, 655377, -1610612734, 0, 655378, -1610612734, 0, 655379, 13, 0, 655380, -1610612736, 0, 720896, -1610612736, 0, 720897, 1610612749, 0, 720898, -1610612732, 0, 720899, -1610612732, 0, 720900, -1610612732, 0, 720901, -1610612732, 0, 720902, 1610612743, 0, 720903, -1610612734, 0, 720904, -1610612734, 0, 720905, -1073741817, 0, 720906, -1610612732, 0, 720907, 1610612742, 0, 720908, -1610612734, 0, 720909, -1610612734, 0, 720910, -1610612734, 0, 720911, -1610612734, 0, 720912, -1610612734, 0, 720913, -1610612734, 0, 720914, -1610612734, 0, 720915, 13, 0, 720916, -1610612736, 0, 786432, -1610612736, 0, 786433, 1610612749, 0, 786434, -1610612732, 0, 786435, -1610612732, 0, 786436, -1610612732, 0, 786437, 1610612742, 0, 786438, -1610612734, 0, 786439, -1610612734, 0, 786440, -1610612734, 0, 786441, -1610612734, 0, 786442, 6, 0, 786443, -1610612732, 0, 786444, -1610612730, 0, 786445, -1610612730, 0, 786446, -1610612729, 0, 786447, -1610612734, 0, 786448, -1610612734, 0, 786449, -1610612734, 0, 786450, -1610612734, 0, 786451, -1073741810, 0, 786452, -1073741811, 0, 851968, -1610612736, 0, 851969, 1610612749, 0, 851970, -1073741818, 0, 851971, -1073741818, 0, 851972, -1073741818, 0, 851973, 1610612742, 0, 851974, -1610612734, 0, 851975, -1610612734, 0, 851976, -1610612734, 0, 851977, -1610612734, 0, 851978, -1073741817, 0, 851979, -1073741818, 0, 851980, -1073741818, 0, 851981, -1610612732, 0, 851982, 1610612742, 0, 851983, -1610612734, 0, 851984, -1610612734, 0, 851985, -1610612734, 0, 851986, -1610612734, 0, 851987, -1610612734, 0, 851988, -1610612734, 0, 917504, -1610612736, 0, 917505, 1610612749, 0, 917506, -1610612734, 0, 917507, -1610612734, 0, 917508, -1610612734, 0, 917509, 6, 0, 917510, -1610612729, 0, 917511, -1610612734, 0, 917512, -1610612734, 0, 917513, -1610612734, 0, 917514, -1610612734, 0, 917515, -1610612734, 0, 917516, -1610612734, 0, 917517, 6, 0, 917518, 1610612742, 0, 917519, -1610612734, 0, 917520, -1610612734, 0, 917521, -1610612734, 0, 917522, -1610612734, 0, 917523, -1610612734, 0, 917524, -1610612734, 0, 983040, -1610612736, 0, 983041, 1610612749, 0, 983042, -1610612734, 0, 983043, -1610612734, 0, 983044, -1610612734, 0, 983045, -1073741817, 0, 983046, -1610612732, 0, 983047, -1610612730, 0, 983048, -1610612729, 0, 983049, -1610612734, 0, 983050, -1610612734, 0, 983051, -1610612734, 0, 983052, -1610612734, 0, 983053, -1073741817, 0, 983054, 1610612742, 0, 983055, -1610612734, 0, 983056, -1610612734, 0, 983057, -1610612734, 0, 983058, -1610612734, 0, 983059, -1610612734, 0, 983060, -1610612734, 0, 1048576, -1610612736, 0, 1048577, 1610612749, 0, 1048578, -1610612734, 0, 1048579, -1610612734, 0, 1048580, -1610612734, 0, 1048581, -1610612734, 0, 1048582, -1073741817, 0, 1048583, -1073741818, 0, 1048584, 1610612743, 0, 1048585, 1610612738, 0, 1048586, 1610612738, 0, 1048587, -1610612734, 0, 1048588, -1610612734, 0, 1048589, -1610612734, 0, 1048590, 6, 0, 1048591, -1610612730, 0, 1048592, 14, 0, 1048593, -1610612723, 0, 1048594, -1610612723, 0, 1048595, -1610612723, 0, 1048596, -1610612723, 0, 1114112, -1610612736, 0, 1114113, 1610612749, 0, 1114114, -1610612734, 0, 1114115, -1610612734, 0, 1114116, -1610612734, 0, 1114117, -1610612734, 0, 1114118, -1610612734, 0, 1114119, -1610612734, 0, 1114120, -1610612734, 0, 1114121, -1610612734, 0, 1114122, -1610612734, 0, 1114123, -1610612734, 0, 1114124, -1610612734, 0, 1114125, -1610612734, 0, 1114126, 6, 0, 1114127, 1610612740, 0, 1114128, 13, 0, 1114129, -1610612736, 0, 1114130, -1610612736, 0, 1114131, -1610612736, 0, 1114132, -1610612736, 0, 1179648, -1610612736, 0, 1179649, 1610612749, 0, 1179650, -1610612734, 0, 1179651, -1610612734, 0, 1179652, -1610612734, 0, 1179653, -1610612734, 0, 1179654, -1610612734, 0, 1179655, -1610612734, 0, 1179656, -1610612734, 0, 1179657, -1610612734, 0, 1179658, -1610612734, 0, 1179659, -1610612734, 0, 1179660, -1610612734, 0, 1179661, -1610612734, 0, 1179662, 6, 0, 1179663, 1610612740, 0, 1179664, 13, 0, 1179665, -1610612736, 0, 1179666, -1610612736, 0, 1179667, -1610612736, 0, 1179668, -1610612736, 0, 1245184, -1610612736, 0, 1245185, 1610612749, 0, 1245186, -1610612734, 0, 1245187, -1610612734, 0, 1245188, -1610612734, 0, 1245189, 14, 0, 1245190, -1610612723, 0, 1245191, -1610612723, 0, 1245192, -1610612723, 0, 1245193, -1610612723, 0, 1245194, -1610612723, 0, 1245195, -1610612723, 0, 1245196, -1610612723, 0, 1245197, -1610612723, 0, 1245198, -1610612723, 0, 1245199, -1610612723, 0, 1245200, -1610612721, 0, 1245201, -1610612736, 0, 1245202, -1610612736, 0, 1245203, -1610612736, 0, 1245204, -1610612736, 0, 1310720, -1610612736, 0, 1310721, 1610612749, 0, 1310722, -1610612734, 0, 1310723, -1610612734, 0, 1310724, -1610612734, 0, 1310725, 13, 0, 1310726, -1610612736, 0, 1310727, -1610612736, 0, 1310728, -1610612736, 0, 1310729, -1610612736, 0, 1310730, -1610612736, 0, 1310731, -1610612736, 0, 1310732, -1610612736, 0, 1310733, -1610612736, 0, 1310734, -1610612736, 0, 1310735, -1610612736, 0, 1310736, -1610612736, 0, 1310737, -1610612736, 0, 1310738, -1610612736, 0, 1310739, -1610612736, 0, 1310740, -1610612736, 0 )
biome = ExtResource( 2 )

[node name="Zombie" parent="Map" index="4" instance=ExtResource( 7 )]
position = Vector2( 96, 144 )
tile = Vector2( 6, 9 )
movement_profile = SubResource( 1 )

[node name="Zombie2" parent="Map" index="5" instance=ExtResource( 7 )]
position = Vector2( 208, 68 )
tile = Vector2( 13, 4 )
movement_profile = SubResource( 2 )

[node name="Zombie3" parent="Map" index="6" instance=ExtResource( 7 )]
position = Vector2( 48, 112 )
tile = Vector2( 3, 7 )
movement_profile = SubResource( 3 )

[node name="Zombie4" parent="Map" index="7" instance=ExtResource( 7 )]
position = Vector2( 128, 64 )
tile = Vector2( 8, 4 )
movement_profile = SubResource( 4 )

[node name="Zombie5" parent="Map" index="8" instance=ExtResource( 7 )]
position = Vector2( 128, 208 )
tile = Vector2( 8, 13 )
movement_profile = SubResource( 5 )

[node name="Zombie6" parent="Map" index="9" instance=ExtResource( 7 )]
position = Vector2( 144, 224 )
tile = Vector2( 9, 14 )
movement_profile = SubResource( 6 )

[node name="Zombie7" parent="Map" index="10" instance=ExtResource( 7 )]
position = Vector2( 144, 256 )
tile = Vector2( 9, 16 )
movement_profile = SubResource( 7 )

[node name="Zombie8" parent="Map" index="11" instance=ExtResource( 7 )]
position = Vector2( 176, 272 )
tile = Vector2( 11, 17 )
movement_profile = SubResource( 8 )

[node name="Zombie9" parent="Map" index="12" instance=ExtResource( 7 )]
position = Vector2( 128, 272 )
tile = Vector2( 8, 17 )
movement_profile = SubResource( 9 )

[node name="Zombie10" parent="Map" index="13" instance=ExtResource( 7 )]
position = Vector2( 80, 272 )
tile = Vector2( 5, 17 )
movement_profile = SubResource( 10 )

[node name="Zombie11" parent="Map" index="14" instance=ExtResource( 7 )]
position = Vector2( 48, 256 )
tile = Vector2( 3, 16 )
movement_profile = SubResource( 11 )
