[gd_scene load_steps=11 format=2]

[ext_resource path="res://old/battle/Battle.tscn" type="PackedScene" id=1]
[ext_resource path="res://old/gameplay/common/MovementProfile.gd" type="Script" id=3]
[ext_resource path="res://old/gameplay/entity/obstacle/Rock.tscn" type="PackedScene" id=4]
[ext_resource path="res://old/battle/map/Biome.gd" type="Script" id=5]
[ext_resource path="res://old/gameplay/entity/creature/slime/Slime.tscn" type="PackedScene" id=8]
[ext_resource path="res://old/gameplay/entity/creature/winged-eater/WingedEater.tscn" type="PackedScene" id=9]

[sub_resource type="Resource" id=3]
resource_local_to_scene = true
resource_name = "Biome"
script = ExtResource( 5 )
gen_type = 0
entity_generators = [  ]

[sub_resource type="Resource" id=4]
resource_local_to_scene = true
script = ExtResource( 3 )
mask = 5
operation = 0

[sub_resource type="Resource" id=5]
resource_local_to_scene = true
resource_name = "MovementProfile"
script = ExtResource( 3 )
mask = 17
operation = 0

[sub_resource type="Resource" id=6]
resource_local_to_scene = true
resource_name = "MovementProfile"
script = ExtResource( 3 )
mask = 18
operation = 0

[node name="Battle2" instance=ExtResource( 1 )]

[node name="Map" parent="." index="2"]
tile_data = PoolIntArray( 0, 1610612736, 0, 1, 1610612736, 0, 2, 1610612736, 0, 3, 1610612736, 0, 4, 1610612736, 0, 5, 1610612736, 0, 6, 1610612749, 0, 7, 1610612737, 0, 8, 1, 0, 9, 1, 0, 10, 1, 0, 11, 13, 0, 12, 0, 0, 13, 1610612736, 0, 14, 1610612749, 0, 15, 1610612740, 0, 16, 4, 0, 17, 1610612740, 0, 18, 13, 0, 19, 1610612736, 0, 20, 1610612736, 0, 65536, 1610612736, 0, 65537, 1610612736, 0, 65538, 1610612736, 0, 65539, 1610612736, 0, 65540, 1610612736, 0, 65541, 1610612736, 0, 65542, 1610612751, 0, 65543, -1610612722, 0, 65544, 1, 0, 65545, 1, 0, 65546, 1, 0, 65547, 13, 0, 65548, 0, 0, 65549, -1073741809, 0, 65550, 1610612750, 0, 65551, 1610612740, 0, 65552, 4, 0, 65553, 1610612740, 0, 65554, -1073741810, 0, 65555, 15, 0, 65556, 1610612736, 0, 131072, 1610612736, 0, 131073, 1610612736, 0, 131074, -1610612736, 0, 131075, 0, 0, 131076, 0, 0, 131077, 0, 0, 131078, -1073741824, 0, 131079, 1610612749, 0, 131080, 1, 0, 131081, 1, 0, 131082, 1, 0, 131083, -1073741810, 0, 131084, -1073741811, 0, 131085, 1610612750, 0, 131086, 1610612740, 0, 131087, 1610612740, 0, 131088, 4, 0, 131089, 1610612740, 0, 131090, 4, 0, 131091, 13, 0, 131092, 1610612736, 0, 196608, 1610612736, 0, 196609, 1610612736, 0, 196610, -1073741809, 0, 196611, -1073741811, 0, 196612, -1073741811, 0, 196613, -1073741811, 0, 196614, 15, 0, 196615, 1610612751, 0, 196616, -1610612722, 0, 196617, 1, 0, 196618, 1, 0, 196619, 1610612737, 0, 196620, -1073741817, 0, 196621, -1073741818, 0, 196622, -1073741816, 0, 196623, 4, 0, 196624, 4, 0, 196625, 1610612740, 0, 196626, 4, 0, 196627, -1073741810, 0, 196628, 15, 0, 262144, -1073741811, 0, 262145, -1073741811, 0, 262146, 1610612750, 0, 262147, 1, 0, 262148, 1, 0, 262149, 1, 0, 262150, 13, 0, 262151, -1073741824, 0, 262152, 1610612751, 0, 262153, -1610612722, 0, 262154, 1, 0, 262155, 1, 0, 262156, 1, 0, 262157, 1, 0, 262158, -1073741817, 0, 262159, -1073741816, 0, 262160, 4, 0, 262161, 1610612740, 0, 262162, 4, 0, 262163, 4, 0, 262164, 13, 0, 327680, 1, 0, 327681, 1, 0, 327682, 1, 0, 327683, 1, 0, 327684, 1, 0, 327685, 1, 0, 327686, -1073741810, 0, 327687, 15, 0, 327688, -1073741824, 0, 327689, 1610612751, 0, 327690, -1610612723, 0, 327691, -1610612722, 0, 327692, 1, 0, 327693, 1, 0, 327694, 1, 0, 327695, -1073741817, 0, 327696, -1073741816, 0, 327697, 4, 0, 327698, 4, 0, 327699, 4, 0, 327700, 13, 0, 393216, 1, 0, 393217, 1, 0, 393218, 1, 0, 393219, 1, 0, 393220, 1, 0, 393221, 1, 0, 393222, 1, 0, 393223, -1073741810, 0, 393224, 15, 0, 393225, -1073741824, 0, 393226, -1073741824, 0, 393227, 1610612749, 0, 393228, 1610612737, 0, 393229, 1, 0, 393230, 1, 0, 393231, 1, 0, 393232, -1073741817, 0, 393233, -1073741816, 0, 393234, 4, 0, 393235, 4, 0, 393236, 13, 0, 458752, 1, 0, 458753, 1, 0, 458754, 1, 0, 458755, 1, 0, 458756, 1, 0, 458757, 1, 0, 458758, 1, 0, 458759, 1, 0, 458760, -1073741810, 0, 458761, 15, 0, 458762, -1073741824, 0, 458763, 1610612751, 0, 458764, -1610612723, 0, 458765, -1610612722, 0, 458766, 1, 0, 458767, 1, 0, 458768, 1, 0, 458769, -1073741817, 0, 458770, 4, 0, 458771, 14, 0, 458772, -1610612721, 0, 524288, -1610612723, 0, 524289, -1610612723, 0, 524290, -1610612722, 0, 524291, 1, 0, 524292, 1, 0, 524293, 1, 0, 524294, 1, 0, 524295, 1, 0, 524296, 1, 0, 524297, -1073741810, 0, 524298, 15, 0, 524299, -1073741824, 0, 524300, 1610612736, 0, 524301, 1610612749, 0, 524302, 1, 0, 524303, 1, 0, 524304, 1, 0, 524305, 1, 0, 524306, 14, 0, 524307, -1610612721, 0, 524308, 1610612736, 0, 589824, 1610612736, 0, 589825, 1610612736, 0, 589826, 1610612749, 0, 589827, 1, 0, 589828, 1, 0, 589829, 1, 0, 589830, 1, 0, 589831, 1, 0, 589832, 1, 0, 589833, 1610612737, 0, 589834, 13, 0, 589835, 1610612736, 0, 589836, 1610612736, 0, 589837, 1610612749, 0, 589838, 1, 0, 589839, 1610612737, 0, 589840, 1, 0, 589841, 1, 0, 589842, 13, 0, 589843, 1610612736, 0, 589844, 1610612736, 0, 655360, 1610612736, 0, 655361, 1610612736, 0, 655362, 1610612751, 0, 655363, -1610612722, 0, 655364, 1, 0, 655365, 1, 0, 655366, 1, 0, 655367, 1, 0, 655368, 1, 0, 655369, 1, 0, 655370, 13, 0, 655371, 0, 0, 655372, 1610612736, 0, 655373, 1610612749, 0, 655374, 1, 0, 655375, 1, 0, 655376, 1, 0, 655377, 1, 0, 655378, 13, 0, 655379, 1610612736, 0, 655380, 1610612736, 0, 720896, 1610612736, 0, 720897, 1610612736, 0, 720898, -1610612736, 0, 720899, 1610612749, 0, 720900, 1, 0, 720901, 1, 0, 720902, 1, 0, 720903, 1, 0, 720904, 1, 0, 720905, 1, 0, 720906, 13, 0, 720907, -1073741824, 0, 720908, -1073741809, 0, 720909, 1610612750, 0, 720910, 1, 0, 720911, 1, 0, 720912, 1, 0, 720913, 1, 0, 720914, 13, 0, 720915, 1610612736, 0, 720916, 1610612736, 0, 786432, 1610612736, 0, 786433, 1610612736, 0, 786434, -1610612736, 0, 786435, 1610612749, 0, 786436, 1, 0, 786437, 1, 0, 786438, 1, 0, 786439, 1, 0, 786440, 1, 0, 786441, 1, 0, 786442, 13, 0, 786443, -1073741824, 0, 786444, 1610612749, 0, 786445, 1, 0, 786446, 1, 0, 786447, 1, 0, 786448, 1, 0, 786449, 1, 0, 786450, 13, 0, 786451, 1610612736, 0, 786452, 1610612736, 0, 851968, 1610612736, 0, 851969, 1610612736, 0, 851970, -1610612736, 0, 851971, 1610612749, 0, 851972, 1, 0, 851973, 1, 0, 851974, 1, 0, 851975, 1, 0, 851976, 1, 0, 851977, 14, 0, 851978, -1610612721, 0, 851979, -1073741824, 0, 851980, 1610612749, 0, 851981, 1, 0, 851982, 1, 0, 851983, 1, 0, 851984, 1, 0, 851985, 1, 0, 851986, 13, 0, 851987, 1610612736, 0, 851988, 1610612736, 0, 917504, 1610612736, 0, 917505, 1610612736, 0, 917506, -1610612736, 0, 917507, 1610612749, 0, 917508, 1, 0, 917509, 1, 0, 917510, 1, 0, 917511, 1, 0, 917512, 14, 0, 917513, -1610612721, 0, 917514, -1073741824, 0, 917515, -1073741809, 0, 917516, 1610612750, 0, 917517, 1, 0, 917518, 1, 0, 917519, 1, 0, 917520, 1, 0, 917521, 1, 0, 917522, 13, 0, 917523, 1610612736, 0, 917524, 1610612736, 0, 983040, 1610612736, 0, 983041, 1610612736, 0, 983042, -1610612736, 0, 983043, 1610612749, 0, 983044, 1, 0, 983045, 1, 0, 983046, 1, 0, 983047, 1, 0, 983048, 13, 0, 983049, -1073741824, 0, 983050, -1073741809, 0, 983051, 1610612750, 0, 983052, 1, 0, 983053, 1, 0, 983054, 1, 0, 983055, 1, 0, 983056, 1, 0, 983057, 14, 0, 983058, -1610612721, 0, 983059, 1610612736, 0, 983060, 1610612736, 0, 1048576, 1610612736, 0, 1048577, 1610612736, 0, 1048578, -1610612736, 0, 1048579, 1610612749, 0, 1048580, 1, 0, 1048581, 1, 0, 1048582, 1, 0, 1048583, 1, 0, 1048584, 13, 0, 1048585, -1073741824, 0, 1048586, 1610612749, 0, 1048587, 1, 0, 1048588, 1, 0, 1048589, 1, 0, 1048590, 1, 0, 1048591, 1, 0, 1048592, 14, 0, 1048593, -1610612721, 0, 1048594, -1610612736, 0, 1048595, 1610612736, 0, 1048596, 1610612736, 0, 1114112, 1610612736, 0, 1114113, 1610612736, 0, 1114114, -1073741809, 0, 1114115, 1610612750, 0, 1114116, 1, 0, 1114117, 1, 0, 1114118, 1, 0, 1114119, 1, 0, 1114120, 13, 0, 1114121, -1073741824, 0, 1114122, 1610612749, 0, 1114123, 1, 0, 1114124, 1, 0, 1114125, 1, 0, 1114126, 1, 0, 1114127, 1, 0, 1114128, 13, 0, 1114129, -1610612736, 0, 1114130, -1610612736, 0, 1114131, 1610612736, 0, 1114132, 1610612736, 0, 1179648, 1610612736, 0, 1179649, 1610612736, 0, 1179650, 1610612749, 0, 1179651, 1, 0, 1179652, 1, 0, 1179653, 1, 0, 1179654, 1, 0, 1179655, 14, 0, 1179656, -1610612721, 0, 1179657, -1073741824, 0, 1179658, 1610612751, 0, 1179659, -1610612722, 0, 1179660, 1, 0, 1179661, 1, 0, 1179662, 1, 0, 1179663, 1, 0, 1179664, 13, 0, 1179665, -1610612736, 0, 1179666, -1610612736, 0, 1179667, 1610612736, 0, 1179668, 1610612736, 0, 1245184, 1610612736, 0, 1245185, 1610612736, 0, 1245186, 1610612749, 0, 1245187, 1, 0, 1245188, 1, 0, 1245189, 1, 0, 1245190, 14, 0, 1245191, -1610612721, 0, 1245192, -1073741824, 0, 1245193, 1610612736, 0, 1245194, 1610612736, 0, 1245195, 1610612749, 0, 1245196, 1, 0, 1245197, 1, 0, 1245198, 1, 0, 1245199, 1, 0, 1245200, 13, 0, 1245201, 1610612736, 0, 1245202, 1610612736, 0, 1245203, 1610612736, 0, 1245204, 1610612736, 0, 1310720, 1610612736, 0, 1310721, 1610612736, 0, 1310722, 1610612749, 0, 1310723, 1, 0, 1310724, 1, 0, 1310725, 1, 0, 1310726, 13, 0, 1310727, 1610612736, 0, 1310728, -1073741824, 0, 1310729, 1610612736, 0, 1310730, 1610612736, 0, 1310731, 1610612749, 0, 1310732, 1, 0, 1310733, 1, 0, 1310734, 1, 0, 1310735, 1, 0, 1310736, 13, 0, 1310737, 1610612736, 0, 1310738, 1610612736, 0, 1310739, 1610612736, 0, 1310740, 1610612736, 0 )
biome = SubResource( 3 )

[node name="Rock" parent="Map" index="4" instance=ExtResource( 4 )]
position = Vector2( 48, 64 )
tile = Vector2( 3, 4 )
movement_profile = SubResource( 4 )

[node name="Rock2" parent="Map" index="5" instance=ExtResource( 4 )]
position = Vector2( 96, 96 )
tile = Vector2( 6, 6 )
movement_profile = SubResource( 4 )

[node name="Rock3" parent="Map" index="6" instance=ExtResource( 4 )]
position = Vector2( 80, 176 )
tile = Vector2( 5, 11 )
movement_profile = SubResource( 4 )

[node name="Rock4" parent="Map" index="7" instance=ExtResource( 4 )]
position = Vector2( 144, 192 )
tile = Vector2( 9, 12 )
movement_profile = SubResource( 4 )

[node name="Rock5" parent="Map" index="8" instance=ExtResource( 4 )]
position = Vector2( 96, 240 )
tile = Vector2( 6, 15 )
movement_profile = SubResource( 4 )

[node name="Rock6" parent="Map" index="9" instance=ExtResource( 4 )]
position = Vector2( 48, 144 )
tile = Vector2( 3, 9 )
movement_profile = SubResource( 4 )

[node name="Rock7" parent="Map" index="10" instance=ExtResource( 4 )]
position = Vector2( 112, 144 )
tile = Vector2( 7, 9 )
movement_profile = SubResource( 4 )

[node name="Rock8" parent="Map" index="11" instance=ExtResource( 4 )]
position = Vector2( 48, 288 )
tile = Vector2( 3, 18 )
movement_profile = SubResource( 4 )

[node name="Rock9" parent="Map" index="12" instance=ExtResource( 4 )]
position = Vector2( 176, 256 )
tile = Vector2( 11, 16 )
movement_profile = SubResource( 4 )

[node name="Rock10" parent="Map" index="13" instance=ExtResource( 4 )]
position = Vector2( 272, 224 )
tile = Vector2( 17, 14 )
movement_profile = SubResource( 4 )

[node name="Rock11" parent="Map" index="14" instance=ExtResource( 4 )]
position = Vector2( 240, 176 )
tile = Vector2( 15, 11 )
movement_profile = SubResource( 4 )

[node name="Rock12" parent="Map" index="15" instance=ExtResource( 4 )]
position = Vector2( 192, 96 )
tile = Vector2( 12, 6 )
movement_profile = SubResource( 4 )

[node name="Rock13" parent="Map" index="16" instance=ExtResource( 4 )]
position = Vector2( 128, 32 )
tile = Vector2( 8, 2 )
movement_profile = SubResource( 4 )

[node name="Rock14" parent="Map" index="17" instance=ExtResource( 4 )]
position = Vector2( 256, 112 )
tile = Vector2( 16, 7 )
movement_profile = SubResource( 4 )

[node name="Slime" parent="Map" index="18" instance=ExtResource( 8 )]
position = Vector2( 80, 128 )
tile = Vector2( 5, 8 )
movement_profile = SubResource( 5 )

[node name="Slime2" parent="Map" index="19" instance=ExtResource( 8 )]
position = Vector2( 80, 224 )
tile = Vector2( 5, 14 )
movement_profile = SubResource( 5 )

[node name="Slime3" parent="Map" index="20" instance=ExtResource( 8 )]
position = Vector2( 224, 208 )
tile = Vector2( 14, 13 )
movement_profile = SubResource( 5 )

[node name="Slime4" parent="Map" index="21" instance=ExtResource( 8 )]
position = Vector2( 256, 144 )
tile = Vector2( 16, 9 )
movement_profile = SubResource( 5 )

[node name="Slime5" parent="Map" index="22" instance=ExtResource( 8 )]
position = Vector2( 144, 16 )
tile = Vector2( 9, 1 )
movement_profile = SubResource( 5 )

[node name="Slime6" parent="Map" index="23" instance=ExtResource( 8 )]
position = Vector2( 112, 176 )
tile = Vector2( 7, 11 )
movement_profile = SubResource( 5 )

[node name="WingedEater" parent="Map" index="24" instance=ExtResource( 9 )]
position = Vector2( 144, 160 )
tile = Vector2( 9, 10 )
movement_profile = SubResource( 6 )

[node name="WingedEater2" parent="Map" index="25" instance=ExtResource( 9 )]
position = Vector2( 80, 272 )
tile = Vector2( 5, 17 )
movement_profile = SubResource( 6 )

[node name="WingedEater3" parent="Map" index="26" instance=ExtResource( 9 )]
position = Vector2( 224, 272 )
tile = Vector2( 14, 17 )
movement_profile = SubResource( 6 )

[node name="WingedEater4" parent="Map" index="27" instance=ExtResource( 9 )]
position = Vector2( 208, 80 )
tile = Vector2( 13, 5 )
movement_profile = SubResource( 6 )
