[gd_scene load_steps=9 format=2]

[ext_resource path="res://view/map/body_view_base/BodyViewBase.gd" type="Script" id=1]
[ext_resource path="res://view/billboard/AnimatedBillboardSprite3D.tscn" type="PackedScene" id=2]
[ext_resource path="res://view/map/CameraHook.tscn" type="PackedScene" id=3]
[ext_resource path="res://view/billboard/BillboardShader.gdshader" type="Shader" id=4]
[ext_resource path="res://asset/sprite/gimoi.png" type="Texture" id=5]

[sub_resource type="CylinderShape" id=1]
radius = 0.25
height = 1.0

[sub_resource type="AtlasTexture" id=2]
atlas = ExtResource( 5 )
region = Rect2( 0, 0, 32, 32 )

[sub_resource type="ShaderMaterial" id=3]
resource_local_to_scene = true
shader = ExtResource( 4 )
shader_param/scale = Vector3( 2, 2, 2 )
shader_param/sprite = SubResource( 2 )

[node name="BodyViewBase" type="KinematicBody"]
script = ExtResource( 1 )

[node name="CollisionShape" type="CollisionShape" parent="."]
transform = Transform( 1, 0, 0, 0, 1, 0, 0, 0, 1, 0, 0.5, 0 )
shape = SubResource( 1 )

[node name="Sprite" parent="." instance=ExtResource( 2 )]
material_override = SubResource( 3 )
shaded = false

[node name="CameraHook" parent="." instance=ExtResource( 3 )]
transform = Transform( 1, 0, 0, 0, 0.671061, 0.741402, 0, -0.741402, 0.671061, 0, 4.22483, 3.72719 )
