[gd_scene load_steps=10 format=2]

[ext_resource path="res://old/gameplay/entity/Entity.tscn" type="PackedScene" id=1]
[ext_resource path="res://asset/sprite/colored_transparent_packed.png" type="Texture" id=2]
[ext_resource path="res://old/gameplay/property/desctructible/Destructible.tscn" type="PackedScene" id=3]
[ext_resource path="res://old/gameplay/property/status/rooted/Rooted.tscn" type="PackedScene" id=4]
[ext_resource path="res://old/gameplay/property/lifeform/Living.tscn" type="PackedScene" id=5]
[ext_resource path="res://old/gameplay/property/lifeform/Organic.tscn" type="PackedScene" id=6]
[ext_resource path="res://old/gameplay/common/MovementProfile.gd" type="Script" id=7]

[sub_resource type="AtlasTexture" id=1]
resource_local_to_scene = true
atlas = ExtResource( 2 )
region = Rect2( 64, 32, 16, 16 )

[sub_resource type="Resource" id=2]
resource_local_to_scene = true
resource_name = "MovementProfile"
script = ExtResource( 7 )
mask = 5
operation = 0

[node name="Plant" instance=ExtResource( 1 )]
texture = SubResource( 1 )
entity_name = "Bush"
movement_profile = SubResource( 2 )

[node name="Destructible" parent="." index="0" instance=ExtResource( 3 )]
max_hp = 2

[node name="Rooted" parent="." index="1" instance=ExtResource( 4 )]
visible = false
INFO = "rooted"
DURATION = -1

[node name="Living" parent="." index="2" instance=ExtResource( 5 )]

[node name="Organic" parent="." index="3" instance=ExtResource( 6 )]
