[gd_scene load_steps=4 format=2]

[ext_resource path="res://old/gameplay/property/temporary/Temporary.gd" type="Script" id=1]
[ext_resource path="res://old/gameplay/effect/NewRoundEffect.gd" type="Script" id=2]
[ext_resource path="res://old/gameplay/property/temporary/TicksEveryRound.gd" type="Script" id=3]

[node name="Temporary" type="Node2D"]
script = ExtResource( 1 )

[node name="TicksEveryRound" type="Node" parent="."]
script = ExtResource( 3 )
EFFECT_TYPES = [ ExtResource( 2 ) ]
PROCESSES_EFFECT = true
APPLIES_EFFECT = true
