[gd_scene load_steps=9 format=2]

[ext_resource path="res://old/gameplay/entity/environment/Environment.tscn" type="PackedScene" id=1]
[ext_resource path="res://old/battle/map/Map.gd" type="Script" id=2]
[ext_resource path="res://asset/sprite/colored_transparent_packed.png" type="Texture" id=3]
[ext_resource path="res://old/battle/map/Biome.gd" type="Script" id=4]

[sub_resource type="TileSet" id=1]
0/name = "empty"
0/texture = ExtResource( 3 )
0/tex_offset = Vector2( 0, 0 )
0/modulate = Color( 1, 1, 1, 1 )
0/region = Rect2( 0, 0, 16, 16 )
0/tile_mode = 0
0/occluder_offset = Vector2( 0, 0 )
0/navigation_offset = Vector2( 0, 0 )
0/shape_offset = Vector2( 0, 0 )
0/shape_transform = Transform2D( 1, 0, 0, 1, 0, 0 )
0/shape_one_way = false
0/shape_one_way_margin = 0.0
0/shapes = [  ]
0/z_index = 0
1/name = "dirt"
1/texture = ExtResource( 3 )
1/tex_offset = Vector2( 0, 0 )
1/modulate = Color( 1, 1, 1, 1 )
1/region = Rect2( 16, 352, 16, 16 )
1/tile_mode = 0
1/occluder_offset = Vector2( 0, 0 )
1/navigation_offset = Vector2( 0, 0 )
1/shape_offset = Vector2( 0, 0 )
1/shape_transform = Transform2D( 1, 0, 0, 1, 0, 0 )
1/shape_one_way = false
1/shape_one_way_margin = 0.0
1/shapes = [  ]
1/z_index = 0
2/name = "grass"
2/texture = ExtResource( 3 )
2/tex_offset = Vector2( 0, 0 )
2/modulate = Color( 1, 1, 1, 1 )
2/region = Rect2( 32, 352, 16, 16 )
2/tile_mode = 0
2/occluder_offset = Vector2( 0, 0 )
2/navigation_offset = Vector2( 0, 0 )
2/shape_offset = Vector2( 0, 0 )
2/shape_transform = Transform2D( 1, 0, 0, 1, 0, 0 )
2/shape_one_way = false
2/shape_one_way_margin = 0.0
2/shapes = [  ]
2/z_index = 0
3/name = "blank"
3/texture = ExtResource( 3 )
3/tex_offset = Vector2( 0, 0 )
3/modulate = Color( 1, 1, 1, 1 )
3/region = Rect2( 0, 352, 16, 16 )
3/tile_mode = 0
3/occluder_offset = Vector2( 0, 0 )
3/navigation_offset = Vector2( 0, 0 )
3/shape_offset = Vector2( 0, 0 )
3/shape_transform = Transform2D( 1, 0, 0, 1, 0, 0 )
3/shape_one_way = false
3/shape_one_way_margin = 0.0
3/shapes = [  ]
3/z_index = 0
4/name = "water_middle"
4/texture = ExtResource( 3 )
4/tex_offset = Vector2( 0, 0 )
4/modulate = Color( 1, 1, 1, 1 )
4/region = Rect2( 128, 80, 16, 16 )
4/tile_mode = 0
4/occluder_offset = Vector2( 0, 0 )
4/navigation_offset = Vector2( 0, 0 )
4/shape_offset = Vector2( 0, 0 )
4/shape_transform = Transform2D( 1, 0, 0, 1, 0, 0 )
4/shape_one_way = false
4/shape_one_way_margin = 0.0
4/shapes = [  ]
4/z_index = 0
5/name = "tall_grass"
5/texture = ExtResource( 3 )
5/tex_offset = Vector2( 0, 0 )
5/modulate = Color( 1, 1, 1, 1 )
5/region = Rect2( 0, 32, 16, 16 )
5/tile_mode = 0
5/occluder_offset = Vector2( 0, 0 )
5/navigation_offset = Vector2( 0, 0 )
5/shape_offset = Vector2( 0, 0 )
5/shape_transform = Transform2D( 1, 0, 0, 1, 0, 0 )
5/shape_one_way = false
5/shape_one_way_margin = 0.0
5/shapes = [  ]
5/z_index = 0
6/name = "water_border"
6/texture = ExtResource( 3 )
6/tex_offset = Vector2( 0, 0 )
6/modulate = Color( 1, 1, 1, 1 )
6/region = Rect2( 144, 80, 16, 16 )
6/tile_mode = 0
6/occluder_offset = Vector2( 0, 0 )
6/navigation_offset = Vector2( 0, 0 )
6/shape_offset = Vector2( 0, 0 )
6/shape_transform = Transform2D( 1, 0, 0, 1, 0, 0 )
6/shape_one_way = false
6/shape_one_way_margin = 0.0
6/shapes = [  ]
6/z_index = 0
7/name = "water_outer_corner"
7/texture = ExtResource( 3 )
7/tex_offset = Vector2( 0, 0 )
7/modulate = Color( 1, 1, 1, 1 )
7/region = Rect2( 160, 80, 16, 16 )
7/tile_mode = 0
7/occluder_offset = Vector2( 0, 0 )
7/navigation_offset = Vector2( 0, 0 )
7/shape_offset = Vector2( 0, 0 )
7/shape_transform = Transform2D( 1, 0, 0, 1, 0, 0 )
7/shape_one_way = false
7/shape_one_way_margin = 0.0
7/shapes = [  ]
7/z_index = 0
8/name = "water_inner_corner"
8/texture = ExtResource( 3 )
8/tex_offset = Vector2( 0, 0 )
8/modulate = Color( 1, 1, 1, 1 )
8/region = Rect2( 176, 80, 16, 16 )
8/tile_mode = 0
8/occluder_offset = Vector2( 0, 0 )
8/navigation_offset = Vector2( 0, 0 )
8/shape_offset = Vector2( 0, 0 )
8/shape_transform = Transform2D( 1, 0, 0, 1, 0, 0 )
8/shape_one_way = false
8/shape_one_way_margin = 0.0
8/shapes = [  ]
8/z_index = 0
9/name = "wooden_floor"
9/texture = ExtResource( 3 )
9/tex_offset = Vector2( 0, 0 )
9/modulate = Color( 1, 1, 1, 1 )
9/region = Rect2( 208, 256, 16, 16 )
9/tile_mode = 0
9/occluder_offset = Vector2( 0, 0 )
9/navigation_offset = Vector2( 0, 0 )
9/shape_offset = Vector2( 0, 0 )
9/shape_transform = Transform2D( 1, 0, 0, 1, 0, 0 )
9/shape_one_way = false
9/shape_one_way_margin = 0.0
9/shapes = [  ]
9/z_index = 0
10/name = "packed_dirt"
10/texture = ExtResource( 3 )
10/tex_offset = Vector2( 0, 0 )
10/modulate = Color( 1, 1, 1, 1 )
10/region = Rect2( 32, 0, 16, 16 )
10/tile_mode = 0
10/occluder_offset = Vector2( 0, 0 )
10/navigation_offset = Vector2( 0, 0 )
10/shape_offset = Vector2( 0, 0 )
10/shape_transform = Transform2D( 1, 0, 0, 1, 0, 0 )
10/shape_one_way = false
10/shape_one_way_margin = 0.0
10/shapes = [  ]
10/z_index = 0
11/name = "forest"
11/texture = ExtResource( 3 )
11/tex_offset = Vector2( 0, 0 )
11/modulate = Color( 1, 1, 1, 1 )
11/region = Rect2( 0, 16, 96, 16 )
11/tile_mode = 2
11/autotile/icon_coordinate = Vector2( 0, 0 )
11/autotile/tile_size = Vector2( 16, 16 )
11/autotile/spacing = 0
11/autotile/occluder_map = [  ]
11/autotile/navpoly_map = [  ]
11/autotile/priority_map = [  ]
11/autotile/z_index_map = [  ]
11/occluder_offset = Vector2( 0, 0 )
11/navigation_offset = Vector2( 0, 0 )
11/shape_offset = Vector2( 0, 0 )
11/shape_transform = Transform2D( 1, 0, 0, 1, 0, 0 )
11/shape_one_way = false
11/shape_one_way_margin = 0.0
11/shapes = [  ]
11/z_index = 0
12/name = "wall"
12/texture = ExtResource( 3 )
12/tex_offset = Vector2( 0, 0 )
12/modulate = Color( 1, 1, 1, 1 )
12/region = Rect2( 0, 0, 352, 80 )
12/tile_mode = 1
12/autotile/bitmask_mode = 0
12/autotile/bitmask_flags = [ Vector2( 0, 0 ), 325, Vector2( 18, 0 ), 256, Vector2( 18, 1 ), 260, Vector2( 18, 2 ), 4, Vector2( 18, 3 ), 69, Vector2( 18, 4 ), 321, Vector2( 19, 0 ), 320, Vector2( 19, 2 ), 5, Vector2( 19, 3 ), 261, Vector2( 19, 4 ), 324, Vector2( 20, 0 ), 64, Vector2( 20, 1 ), 65, Vector2( 20, 2 ), 1 ]
12/autotile/icon_coordinate = Vector2( 19, 1 )
12/autotile/tile_size = Vector2( 16, 16 )
12/autotile/spacing = 0
12/autotile/occluder_map = [  ]
12/autotile/navpoly_map = [  ]
12/autotile/priority_map = [  ]
12/autotile/z_index_map = [  ]
12/occluder_offset = Vector2( 0, 0 )
12/navigation_offset = Vector2( 0, 0 )
12/shape_offset = Vector2( 0, 0 )
12/shape_transform = Transform2D( 1, 0, 0, 1, 0, 0 )
12/shape_one_way = false
12/shape_one_way_margin = 0.0
12/shapes = [  ]
12/z_index = 0
13/name = "cliff_edge"
13/texture = ExtResource( 3 )
13/tex_offset = Vector2( 0, 0 )
13/modulate = Color( 1, 1, 1, 1 )
13/region = Rect2( 112, 48, 16, 16 )
13/tile_mode = 0
13/occluder_offset = Vector2( 0, 0 )
13/navigation_offset = Vector2( 0, 0 )
13/shape_offset = Vector2( 0, 0 )
13/shape_transform = Transform2D( 1, 0, 0, 1, 0, 0 )
13/shape_one_way = false
13/shape_one_way_margin = 0.0
13/shapes = [  ]
13/z_index = 0
14/name = "cliff_outer_corner"
14/texture = ExtResource( 3 )
14/tex_offset = Vector2( 0, 0 )
14/modulate = Color( 1, 1, 1, 1 )
14/region = Rect2( 128, 48, 16, 16 )
14/tile_mode = 0
14/occluder_offset = Vector2( 0, 0 )
14/navigation_offset = Vector2( 0, 0 )
14/shape_offset = Vector2( 0, 0 )
14/shape_transform = Transform2D( 1, 0, 0, 1, 0, 0 )
14/shape_one_way = false
14/shape_one_way_margin = 0.0
14/shapes = [  ]
14/z_index = 0
15/name = "cliff_inner_corner"
15/texture = ExtResource( 3 )
15/tex_offset = Vector2( 0, 0 )
15/modulate = Color( 1, 1, 1, 1 )
15/region = Rect2( 144, 48, 16, 16 )
15/tile_mode = 0
15/occluder_offset = Vector2( 0, 0 )
15/navigation_offset = Vector2( 0, 0 )
15/shape_offset = Vector2( 0, 0 )
15/shape_transform = Transform2D( 1, 0, 0, 1, 0, 0 )
15/shape_one_way = false
15/shape_one_way_margin = 0.0
15/shapes = [  ]
15/z_index = 0

[sub_resource type="Resource" id=2]
resource_local_to_scene = true
resource_name = "Biome"
script = ExtResource( 4 )
gen_type = 0
entity_generators = [  ]

[sub_resource type="AtlasTexture" id=3]
atlas = ExtResource( 3 )
region = Rect2( 576, 192, 16, 16 )

[sub_resource type="CanvasItemMaterial" id=4]
blend_mode = 1

[node name="Map" type="TileMap"]
self_modulate = Color( 0.627451, 0.627451, 0.627451, 1 )
position = Vector2( 24, 24 )
scale = Vector2( 2, 2 )
tile_set = SubResource( 1 )
cell_size = Vector2( 16, 16 )
format = 1
tile_data = PoolIntArray( 0, 1, 0, 1, 1, 0, 2, 1, 0, 3, 1, 0, 4, 1, 0, 5, 1, 0, 6, 1, 0, 7, 1, 0, 8, 1, 0, 9, 1, 0, 10, 1, 0, 11, 1, 0, 12, 1, 0, 13, 1, 0, 14, 1, 0, 15, 1, 0, 16, 1, 0, 17, 1, 0, 18, 1, 0, 19, 1, 0, 20, 1, 0, 65536, 1, 0, 65537, 1, 0, 65538, 1, 0, 65539, 1, 0, 65540, 1, 0, 65541, 1, 0, 65542, 1, 0, 65543, 1, 0, 65544, 1, 0, 65545, 1, 0, 65546, 1, 0, 65547, 1, 0, 65548, 1, 0, 65549, 1, 0, 65550, 1, 0, 65551, 1, 0, 65552, 1, 0, 65553, 1, 0, 65554, 1, 0, 65555, 1, 0, 65556, 1, 0, 131072, 1, 0, 131073, 1, 0, 131074, 1, 0, 131075, 1, 0, 131076, 1, 0, 131077, 1, 0, 131078, 1, 0, 131079, 1, 0, 131080, 1, 0, 131081, 1, 0, 131082, 1, 0, 131083, 1, 0, 131084, 1, 0, 131085, 1, 0, 131086, 1, 0, 131087, 1, 0, 131088, 1, 0, 131089, 1, 0, 131090, 1, 0, 131091, 1, 0, 131092, 1, 0, 196608, 1, 0, 196609, 1, 0, 196610, 1, 0, 196611, 1, 0, 196612, 1, 0, 196613, 1, 0, 196614, 1, 0, 196615, 1, 0, 196616, 1, 0, 196617, 1, 0, 196618, 1, 0, 196619, 1, 0, 196620, 1, 0, 196621, 1, 0, 196622, 1, 0, 196623, 1, 0, 196624, 1, 0, 196625, 1, 0, 196626, 1, 0, 196627, 1, 0, 196628, 1, 0, 262144, 1, 0, 262145, 1, 0, 262146, 1, 0, 262147, 1, 0, 262148, 1, 0, 262149, 1, 0, 262150, 1, 0, 262151, 1, 0, 262152, 1, 0, 262153, 1, 0, 262154, 1, 0, 262155, 1, 0, 262156, 1, 0, 262157, 1, 0, 262158, 1, 0, 262159, 1, 0, 262160, 1, 0, 262161, 1, 0, 262162, 1, 0, 262163, 1, 0, 262164, 1, 0, 327680, 1, 0, 327681, 1, 0, 327682, 1, 0, 327683, 1, 0, 327684, 1, 0, 327685, 1, 0, 327686, 1, 0, 327687, 1, 0, 327688, 1, 0, 327689, 1, 0, 327690, 1, 0, 327691, 1, 0, 327692, 1, 0, 327693, 1, 0, 327694, 1, 0, 327695, 1, 0, 327696, 1, 0, 327697, 1, 0, 327698, 1, 0, 327699, 1, 0, 327700, 1, 0, 393216, 1, 0, 393217, 1, 0, 393218, 1, 0, 393219, 1, 0, 393220, 1, 0, 393221, 1, 0, 393222, 1, 0, 393223, 1, 0, 393224, 1, 0, 393225, 1, 0, 393226, 1, 0, 393227, 1, 0, 393228, 1, 0, 393229, 1, 0, 393230, 1, 0, 393231, 1, 0, 393232, 1, 0, 393233, 1, 0, 393234, 1, 0, 393235, 1, 0, 393236, 1, 0, 458752, 1, 0, 458753, 1, 0, 458754, 1, 0, 458755, 1, 0, 458756, 1, 0, 458757, 1, 0, 458758, 1, 0, 458759, 1, 0, 458760, 1, 0, 458761, 1, 0, 458762, 1, 0, 458763, 1, 0, 458764, 1, 0, 458765, 1, 0, 458766, 1, 0, 458767, 1, 0, 458768, 1, 0, 458769, 1, 0, 458770, 1, 0, 458771, 1, 0, 458772, 1, 0, 524288, 1, 0, 524289, 1, 0, 524290, 1, 0, 524291, 1, 0, 524292, 1, 0, 524293, 1, 0, 524294, 1, 0, 524295, 1, 0, 524296, 1, 0, 524297, 1, 0, 524298, 1, 0, 524299, 1, 0, 524300, 1, 0, 524301, 1, 0, 524302, 1, 0, 524303, 1, 0, 524304, 1, 0, 524305, 1, 0, 524306, 1, 0, 524307, 1, 0, 524308, 1, 0, 589824, 1, 0, 589825, 1, 0, 589826, 1, 0, 589827, 1, 0, 589828, 1, 0, 589829, 1, 0, 589830, 1, 0, 589831, 1, 0, 589832, 1, 0, 589833, 1, 0, 589834, 1, 0, 589835, 1, 0, 589836, 1, 0, 589837, 1, 0, 589838, 1, 0, 589839, 1, 0, 589840, 1, 0, 589841, 1, 0, 589842, 1, 0, 589843, 1, 0, 589844, 1, 0, 655360, 1, 0, 655361, 1, 0, 655362, 1, 0, 655363, 1, 0, 655364, 1, 0, 655365, 1, 0, 655366, 1, 0, 655367, 1, 0, 655368, 1, 0, 655369, 1, 0, 655370, 1, 0, 655371, 1, 0, 655372, 1, 0, 655373, 1, 0, 655374, 1, 0, 655375, 1, 0, 655376, 1, 0, 655377, 1, 0, 655378, 1, 0, 655379, 1, 0, 655380, 1, 0, 720896, 1, 0, 720897, 1, 0, 720898, 1, 0, 720899, 1, 0, 720900, 1, 0, 720901, 1, 0, 720902, 1, 0, 720903, 1, 0, 720904, 1, 0, 720905, 1, 0, 720906, 1, 0, 720907, 1, 0, 720908, 1, 0, 720909, 1, 0, 720910, 1, 0, 720911, 1, 0, 720912, 1, 0, 720913, 1, 0, 720914, 1, 0, 720915, 1, 0, 720916, 1, 0, 786432, 1, 0, 786433, 1, 0, 786434, 1, 0, 786435, 1, 0, 786436, 1, 0, 786437, 1, 0, 786438, 1, 0, 786439, 1, 0, 786440, 1, 0, 786441, 1, 0, 786442, 1, 0, 786443, 1, 0, 786444, 1, 0, 786445, 1, 0, 786446, 1, 0, 786447, 1, 0, 786448, 1, 0, 786449, 1, 0, 786450, 1, 0, 786451, 1, 0, 786452, 1, 0, 851968, 1, 0, 851969, 1, 0, 851970, 1, 0, 851971, 1, 0, 851972, 1, 0, 851973, 1, 0, 851974, 1, 0, 851975, 1, 0, 851976, 1, 0, 851977, 1, 0, 851978, 1, 0, 851979, 1, 0, 851980, 1, 0, 851981, 1, 0, 851982, 1, 0, 851983, 1, 0, 851984, 1, 0, 851985, 1, 0, 851986, 1, 0, 851987, 1, 0, 851988, 1, 0, 917504, 1, 0, 917505, 1, 0, 917506, 1, 0, 917507, 1, 0, 917508, 1, 0, 917509, 1, 0, 917510, 1, 0, 917511, 1, 0, 917512, 1, 0, 917513, 1, 0, 917514, 1, 0, 917515, 1, 0, 917516, 1, 0, 917517, 1, 0, 917518, 1, 0, 917519, 1, 0, 917520, 1, 0, 917521, 1, 0, 917522, 1, 0, 917523, 1, 0, 917524, 1, 0, 983040, 1, 0, 983041, 1, 0, 983042, 1, 0, 983043, 1, 0, 983044, 1, 0, 983045, 1, 0, 983046, 1, 0, 983047, 1, 0, 983048, 1, 0, 983049, 1, 0, 983050, 1, 0, 983051, 1, 0, 983052, 1, 0, 983053, 1, 0, 983054, 1, 0, 983055, 1, 0, 983056, 1, 0, 983057, 1, 0, 983058, 1, 0, 983059, 1, 0, 983060, 1, 0, 1048576, 1, 0, 1048577, 1, 0, 1048578, 1, 0, 1048579, 1, 0, 1048580, 1, 0, 1048581, 1, 0, 1048582, 1, 0, 1048583, 1, 0, 1048584, 1, 0, 1048585, 1, 0, 1048586, 1, 0, 1048587, 1, 0, 1048588, 1, 0, 1048589, 1, 0, 1048590, 1, 0, 1048591, 1, 0, 1048592, 1, 0, 1048593, 1, 0, 1048594, 1, 0, 1048595, 1, 0, 1048596, 1, 0, 1114112, 1, 0, 1114113, 1, 0, 1114114, 1, 0, 1114115, 1, 0, 1114116, 1, 0, 1114117, 1, 0, 1114118, 1, 0, 1114119, 1, 0, 1114120, 1, 0, 1114121, 1, 0, 1114122, 1, 0, 1114123, 1, 0, 1114124, 1, 0, 1114125, 1, 0, 1114126, 1, 0, 1114127, 1, 0, 1114128, 1, 0, 1114129, 1, 0, 1114130, 1, 0, 1114131, 1, 0, 1114132, 1, 0, 1179648, 1, 0, 1179649, 1, 0, 1179650, 1, 0, 1179651, 1, 0, 1179652, 1, 0, 1179653, 1, 0, 1179654, 1, 0, 1179655, 1, 0, 1179656, 1, 0, 1179657, 1, 0, 1179658, 1, 0, 1179659, 1, 0, 1179660, 1, 0, 1179661, 1, 0, 1179662, 1, 0, 1179663, 1, 0, 1179664, 1, 0, 1179665, 1, 0, 1179666, 1, 0, 1179667, 1, 0, 1179668, 1, 0, 1245184, 1, 0, 1245185, 1, 0, 1245186, 1, 0, 1245187, 1, 0, 1245188, 1, 0, 1245189, 1, 0, 1245190, 1, 0, 1245191, 1, 0, 1245192, 1, 0, 1245193, 1, 0, 1245194, 1, 0, 1245195, 1, 0, 1245196, 1, 0, 1245197, 1, 0, 1245198, 1, 0, 1245199, 1, 0, 1245200, 1, 0, 1245201, 1, 0, 1245202, 1, 0, 1245203, 1, 0, 1245204, 1, 0, 1310720, 1, 0, 1310721, 1, 0, 1310722, 1, 0, 1310723, 1, 0, 1310724, 1, 0, 1310725, 1, 0, 1310726, 1, 0, 1310727, 1, 0, 1310728, 1, 0, 1310729, 1, 0, 1310730, 1, 0, 1310731, 1, 0, 1310732, 1, 0, 1310733, 1, 0, 1310734, 1, 0, 1310735, 1, 0, 1310736, 1, 0, 1310737, 1, 0, 1310738, 1, 0, 1310739, 1, 0, 1310740, 1, 0 )
script = ExtResource( 2 )
__meta__ = {
"_editor_description_": ""
}
biome = SubResource( 2 )
environment_scn = ExtResource( 1 )

[node name="BG" type="Polygon2D" parent="."]
show_behind_parent = true
color = Color( 0, 0, 0, 1 )
polygon = PoolVector2Array( 0, 0, 336, 0, 336, 336, 0, 336 )

[node name="DefaultSpawnTile" type="Position2D" parent="."]
position = Vector2( 168, 280 )
__meta__ = {
"_gizmo_extents_": 8.0
}

[node name="Cursor" type="Sprite" parent="."]
texture = SubResource( 3 )
centered = false

[node name="Highlight" type="TileMap" parent="."]
modulate = Color( 0.219608, 0.219608, 0.219608, 1 )
material = SubResource( 4 )
tile_set = SubResource( 1 )
cell_size = Vector2( 16, 16 )
format = 1
__meta__ = {
"_editor_description_": ""
}
