[gd_scene load_steps=10 format=2]

[ext_resource path="res://old/gameplay/property/ai/RandomWalk.tscn" type="PackedScene" id=1]
[ext_resource path="res://old/gameplay/property/turn/Turn.tscn" type="PackedScene" id=2]
[ext_resource path="res://old/gameplay/property/desctructible/Destructible.tscn" type="PackedScene" id=3]
[ext_resource path="res://old/gameplay/entity/Entity.tscn" type="PackedScene" id=4]
[ext_resource path="res://asset/sprite/colored_transparent_packed.png" type="Texture" id=5]
[ext_resource path="res://old/gameplay/property/bumper/Bumper.tscn" type="PackedScene" id=7]
[ext_resource path="res://old/gameplay/entity/monster/pursuer/Pursuer.tscn" type="PackedScene" id=8]
[ext_resource path="res://old/gameplay/property/actor/Actor.tscn" type="PackedScene" id=9]

[sub_resource type="AtlasTexture" id=1]
atlas = ExtResource( 5 )
region = Rect2( 496, 128, 16, 16 )

[node name="Monster" groups=[
"monster",
] instance=ExtResource( 4 )]
modulate = Color( 1, 0.341176, 0.0509804, 1 )
texture = SubResource( 1 )

[node name="Turn" parent="." index="0" instance=ExtResource( 2 )]

[node name="Actor" parent="." index="1" instance=ExtResource( 9 )]

[node name="Destructible" parent="." index="2" instance=ExtResource( 3 )]

[node name="Bumper" parent="." index="3" instance=ExtResource( 7 )]

[node name="Pursuer" parent="." index="4" instance=ExtResource( 8 )]

[node name="RandomWalk" parent="." index="5" instance=ExtResource( 1 )]
