[gd_scene load_steps=3 format=2]

[ext_resource path="res://old/gameplay/property/bumper/Bump.tscn" type="PackedScene" id=1]
[ext_resource path="res://old/gameplay/property/bumper/Bumper.gd" type="Script" id=2]

[node name="Bumper" type="Node2D"]
script = ExtResource( 2 )

[node name="Bump" parent="." instance=ExtResource( 1 )]
