[gd_scene load_steps=2 format=2]

[ext_resource path="res://experiments/3D-HEX/CellMeshes/Wall.tres" type="CylinderMesh" id=1]

[node name="Hex" type="MeshInstance"]
transform = Transform( 1, 0, 0, 0, 1, 0, 0, 0, 1, 0, 0.5, 0 )
mesh = ExtResource( 1 )
material/0 = null
